<svg width="12px" height="11px" viewBox="387 84 12 11" version="1.1" xmlns="http://www.w3.org/2000/svg" xmlns:xlink="http://www.w3.org/1999/xlink">
    <!-- Generator: Sketch 39.1 (31720) - http://www.bohemiancoding.com/sketch -->
    <desc>Created with Sketch.</desc>
    <defs></defs>
    <path d="M397.875985,85.613449 C398.109685,85.3797488 398.109685,85.0009212 397.875985,84.767221 C397.642584,84.5335208 397.263158,84.5335208 397.029757,84.767221 L393,88.796978 L388.970841,84.767221 C388.737441,84.5335208 388.358314,84.5335208 388.124613,84.767221 C387.890913,85.0009212 387.890913,85.3797488 388.124613,85.613449 L392.153772,89.643206 L387.876849,93.9201286 C387.643149,94.1538288 387.643149,94.5326564 387.876849,94.7663566 C387.99355,94.8833563 388.146757,94.9417066 388.299963,94.9417066 C388.45317,94.9417066 388.606377,94.8833563 388.723077,94.7663566 L393,90.489434 L397.276923,94.7663566 C397.393922,94.8833563 397.54683,94.9417066 397.700037,94.9417066 C397.853243,94.9417066 398.006151,94.8833563 398.123151,94.7663566 C398.356851,94.5326564 398.356851,94.1538288 398.123151,93.9201286 L393.846228,89.643206 L397.875985,85.613449 Z" id="Shape" stroke="none" fill-opacity="0.569604846" fill="#000000" fill-rule="evenodd"></path>
</svg>
